%YAML 1.1
%TAG !u! tag:unity3d.com,2011:
--- !u!1 &8991472732607449116
GameObject:
  m_ObjectHideFlags: 0
  m_CorrespondingSourceObject: {fileID: 0}
  m_PrefabInstance: {fileID: 0}
  m_PrefabAsset: {fileID: 0}
  serializedVersion: 6
  m_Component:
  - component: {fileID: 9186732785994977651}
  - component: {fileID: 2187011715003204910}
  - component: {fileID: 6460443788895123690}
  m_Layer: 5
  m_Name: banner_alert
  m_TagString: Untagged
  m_Icon: {fileID: 0}
  m_NavMeshLayer: 0
  m_StaticEditorFlags: 0
  m_IsActive: 1
--- !u!224 &9186732785994977651
RectTransform:
  m_ObjectHideFlags: 0
  m_CorrespondingSourceObject: {fileID: 0}
  m_PrefabInstance: {fileID: 0}
  m_PrefabAsset: {fileID: 0}
  m_GameObject: {fileID: 8991472732607449116}
  m_LocalRotation: {x: 0, y: 0, z: 0, w: 1}
  m_LocalPosition: {x: 0, y: 0, z: 0}
  m_LocalScale: {x: 1, y: 1, z: 1}
  m_ConstrainProportionsScale: 0
  m_Children:
  - {fileID: 5962828947261695359}
  m_Father: {fileID: 0}
  m_LocalEulerAnglesHint: {x: 0, y: 0, z: 0}
  m_AnchorMin: {x: 0.5, y: 0.5}
  m_AnchorMax: {x: 0.5, y: 0.5}
  m_AnchoredPosition: {x: 0, y: 4}
  m_SizeDelta: {x: 1520, y: 103}
  m_Pivot: {x: 0.5, y: 0.5}
--- !u!222 &2187011715003204910
CanvasRenderer:
  m_ObjectHideFlags: 0
  m_CorrespondingSourceObject: {fileID: 0}
  m_PrefabInstance: {fileID: 0}
  m_PrefabAsset: {fileID: 0}
  m_GameObject: {fileID: 8991472732607449116}
  m_CullTransparentMesh: 1
--- !u!114 &6460443788895123690
MonoBehaviour:
  m_ObjectHideFlags: 0
  m_CorrespondingSourceObject: {fileID: 0}
  m_PrefabInstance: {fileID: 0}
  m_PrefabAsset: {fileID: 0}
  m_GameObject: {fileID: 8991472732607449116}
  m_Enabled: 1
  m_EditorHideFlags: 0
  m_Script: {fileID: 11500000, guid: fe87c0e1cc204ed48ad3b37840f39efc, type: 3}
  m_Name: 
  m_EditorClassIdentifier: 
  m_Material: {fileID: 0}
  m_Color: {r: 1, g: 1, b: 1, a: 1}
  m_RaycastTarget: 1
  m_RaycastPadding: {x: 0, y: 0, z: 0, w: 0}
  m_Maskable: 1
  m_OnCullStateChanged:
    m_PersistentCalls:
      m_Calls: []
  m_Sprite: {fileID: 21300000, guid: d51ec126ad17f1c4b95b749b075e03ee, type: 3}
  m_Type: 0
  m_PreserveAspect: 0
  m_FillCenter: 1
  m_FillMethod: 4
  m_FillAmount: 1
  m_FillClockwise: 1
  m_FillOrigin: 0
  m_UseSpriteMesh: 0
  m_PixelsPerUnitMultiplier: 1
--- !u!1001 &6529332955656072171
PrefabInstance:
  m_ObjectHideFlags: 0
  serializedVersion: 2
  m_Modification:
    serializedVersion: 3
    m_TransformParent: {fileID: 9186732785994977651}
    m_Modifications:
    - target: {fileID: 602603769340006036, guid: 92f6fe1e3ccc9294a924d9978d3f713c, type: 3}
      propertyPath: m_Pivot.x
      value: 0.5
      objectReference: {fileID: 0}
    - target: {fileID: 602603769340006036, guid: 92f6fe1e3ccc9294a924d9978d3f713c, type: 3}
      propertyPath: m_Pivot.y
      value: 0.5
      objectReference: {fileID: 0}
    - target: {fileID: 602603769340006036, guid: 92f6fe1e3ccc9294a924d9978d3f713c, type: 3}
      propertyPath: m_AnchorMax.x
      value: 0.5
      objectReference: {fileID: 0}
    - target: {fileID: 602603769340006036, guid: 92f6fe1e3ccc9294a924d9978d3f713c, type: 3}
      propertyPath: m_AnchorMax.y
      value: 0.5
      objectReference: {fileID: 0}
    - target: {fileID: 602603769340006036, guid: 92f6fe1e3ccc9294a924d9978d3f713c, type: 3}
      propertyPath: m_AnchorMin.x
      value: 0.5
      objectReference: {fileID: 0}
    - target: {fileID: 602603769340006036, guid: 92f6fe1e3ccc9294a924d9978d3f713c, type: 3}
      propertyPath: m_AnchorMin.y
      value: 0.5
      objectReference: {fileID: 0}
    - target: {fileID: 602603769340006036, guid: 92f6fe1e3ccc9294a924d9978d3f713c, type: 3}
      propertyPath: m_SizeDelta.x
      value: 240
      objectReference: {fileID: 0}
    - target: {fileID: 602603769340006036, guid: 92f6fe1e3ccc9294a924d9978d3f713c, type: 3}
      propertyPath: m_SizeDelta.y
      value: 80
      objectReference: {fileID: 0}
    - target: {fileID: 602603769340006036, guid: 92f6fe1e3ccc9294a924d9978d3f713c, type: 3}
      propertyPath: m_LocalPosition.x
      value: 0
      objectReference: {fileID: 0}
    - target: {fileID: 602603769340006036, guid: 92f6fe1e3ccc9294a924d9978d3f713c, type: 3}
      propertyPath: m_LocalPosition.y
      value: 0
      objectReference: {fileID: 0}
    - target: {fileID: 602603769340006036, guid: 92f6fe1e3ccc9294a924d9978d3f713c, type: 3}
      propertyPath: m_LocalPosition.z
      value: 0
      objectReference: {fileID: 0}
    - target: {fileID: 602603769340006036, guid: 92f6fe1e3ccc9294a924d9978d3f713c, type: 3}
      propertyPath: m_LocalRotation.w
      value: 1
      objectReference: {fileID: 0}
    - target: {fileID: 602603769340006036, guid: 92f6fe1e3ccc9294a924d9978d3f713c, type: 3}
      propertyPath: m_LocalRotation.x
      value: 0
      objectReference: {fileID: 0}
    - target: {fileID: 602603769340006036, guid: 92f6fe1e3ccc9294a924d9978d3f713c, type: 3}
      propertyPath: m_LocalRotation.y
      value: 0
      objectReference: {fileID: 0}
    - target: {fileID: 602603769340006036, guid: 92f6fe1e3ccc9294a924d9978d3f713c, type: 3}
      propertyPath: m_LocalRotation.z
      value: 0
      objectReference: {fileID: 0}
    - target: {fileID: 602603769340006036, guid: 92f6fe1e3ccc9294a924d9978d3f713c, type: 3}
      propertyPath: m_AnchoredPosition.x
      value: 0
      objectReference: {fileID: 0}
    - target: {fileID: 602603769340006036, guid: 92f6fe1e3ccc9294a924d9978d3f713c, type: 3}
      propertyPath: m_AnchoredPosition.y
      value: -6
      objectReference: {fileID: 0}
    - target: {fileID: 602603769340006036, guid: 92f6fe1e3ccc9294a924d9978d3f713c, type: 3}
      propertyPath: m_LocalEulerAnglesHint.x
      value: 0
      objectReference: {fileID: 0}
    - target: {fileID: 602603769340006036, guid: 92f6fe1e3ccc9294a924d9978d3f713c, type: 3}
      propertyPath: m_LocalEulerAnglesHint.y
      value: 0
      objectReference: {fileID: 0}
    - target: {fileID: 602603769340006036, guid: 92f6fe1e3ccc9294a924d9978d3f713c, type: 3}
      propertyPath: m_LocalEulerAnglesHint.z
      value: 0
      objectReference: {fileID: 0}
    - target: {fileID: 1242987014888245529, guid: 92f6fe1e3ccc9294a924d9978d3f713c, type: 3}
      propertyPath: m_Text
      value: "\u904A\u6232\u63D0\u793A\u6587\u5B57"
      objectReference: {fileID: 0}
    - target: {fileID: 1242987014888245529, guid: 92f6fe1e3ccc9294a924d9978d3f713c, type: 3}
      propertyPath: m_Color.b
      value: 1
      objectReference: {fileID: 0}
    - target: {fileID: 1242987014888245529, guid: 92f6fe1e3ccc9294a924d9978d3f713c, type: 3}
      propertyPath: m_Color.g
      value: 1
      objectReference: {fileID: 0}
    - target: {fileID: 1242987014888245529, guid: 92f6fe1e3ccc9294a924d9978d3f713c, type: 3}
      propertyPath: m_Color.r
      value: 1
      objectReference: {fileID: 0}
    - target: {fileID: 2225918563649197457, guid: 92f6fe1e3ccc9294a924d9978d3f713c, type: 3}
      propertyPath: m_Name
      value: TC_32
      objectReference: {fileID: 0}
    m_RemovedComponents: []
    m_RemovedGameObjects: []
    m_AddedGameObjects: []
    m_AddedComponents: []
  m_SourcePrefab: {fileID: 100100000, guid: 92f6fe1e3ccc9294a924d9978d3f713c, type: 3}
--- !u!224 &5962828947261695359 stripped
RectTransform:
  m_CorrespondingSourceObject: {fileID: 602603769340006036, guid: 92f6fe1e3ccc9294a924d9978d3f713c, type: 3}
  m_PrefabInstance: {fileID: 6529332955656072171}
  m_PrefabAsset: {fileID: 0}
