%YAML 1.1
%TAG !u! tag:unity3d.com,2011:
--- !u!319 &101100000
AvatarMask:
  m_ObjectHideFlags: 0
  m_CorrespondingSourceObject: {fileID: 0}
  m_PrefabInstance: {fileID: 0}
  m_PrefabAsset: {fileID: 0}
  m_Name: _Humanoid And Add-Bone
  m_Mask: 00000000010000000100000000000000000000000000000000000000000000000000000000000000000000000000000000000000
  m_Elements:
  - m_Path: 
    m_Weight: 1
  - m_Path: Info
    m_Weight: 0
  - m_Path: Root
    m_Weight: 1
  - m_Path: Root/center
    m_Weight: 1
  - m_Path: Root/center/Hips
    m_Weight: 1
  - m_Path: Root/center/Hips/Spine
    m_Weight: 1
  - m_Path: Root/center/Hips/Spine/Chest
    m_Weight: 1
  - m_Path: Root/center/Hips/Spine/Chest/Upper_Chest
    m_Weight: 1
  - m_Path: Root/center/Hips/Spine/Chest/Upper_Chest/Clavicle_L
    m_Weight: 1
  - m_Path: Root/center/Hips/Spine/Chest/Upper_Chest/Clavicle_L/Upper_Arm_L
    m_Weight: 1
  - m_Path: Root/center/Hips/Spine/Chest/Upper_Chest/Clavicle_L/Upper_Arm_L/Lower_Arm_L
    m_Weight: 1
  - m_Path: Root/center/Hips/Spine/Chest/Upper_Chest/Clavicle_L/Upper_Arm_L/Lower_Arm_L/Elbow_L
    m_Weight: 1
  - m_Path: Root/center/Hips/Spine/Chest/Upper_Chest/Clavicle_L/Upper_Arm_L/Lower_Arm_L/Hand_L
    m_Weight: 1
  - m_Path: Root/center/Hips/Spine/Chest/Upper_Chest/Clavicle_L/Upper_Arm_L/Lower_Arm_L/Hand_L/Finger_L_Index_Proximal
    m_Weight: 1
  - m_Path: Root/center/Hips/Spine/Chest/Upper_Chest/Clavicle_L/Upper_Arm_L/Lower_Arm_L/Hand_L/Finger_L_Index_Proximal/Finger_L_Index_Intermediate
    m_Weight: 1
  - m_Path: Root/center/Hips/Spine/Chest/Upper_Chest/Clavicle_L/Upper_Arm_L/Lower_Arm_L/Hand_L/Finger_L_Middle_Proximal
    m_Weight: 1
  - m_Path: Root/center/Hips/Spine/Chest/Upper_Chest/Clavicle_L/Upper_Arm_L/Lower_Arm_L/Hand_L/Finger_L_Middle_Proximal/Finger_L_Middle_Intermediate
    m_Weight: 1
  - m_Path: Root/center/Hips/Spine/Chest/Upper_Chest/Clavicle_L/Upper_Arm_L/Lower_Arm_L/Hand_L/Finger_L_Pinky_Proximal
    m_Weight: 1
  - m_Path: Root/center/Hips/Spine/Chest/Upper_Chest/Clavicle_L/Upper_Arm_L/Lower_Arm_L/Hand_L/Finger_L_Pinky_Proximal/Finger_L_Pinky_Intermediate
    m_Weight: 1
  - m_Path: Root/center/Hips/Spine/Chest/Upper_Chest/Clavicle_L/Upper_Arm_L/Lower_Arm_L/Hand_L/Finger_L_Ring_Proximal
    m_Weight: 1
  - m_Path: Root/center/Hips/Spine/Chest/Upper_Chest/Clavicle_L/Upper_Arm_L/Lower_Arm_L/Hand_L/Finger_L_Ring_Proximal/Finger_L_Ring_Intermediate
    m_Weight: 1
  - m_Path: Root/center/Hips/Spine/Chest/Upper_Chest/Clavicle_L/Upper_Arm_L/Lower_Arm_L/Hand_L/Finger_L_Thumb_Proximal
    m_Weight: 1
  - m_Path: Root/center/Hips/Spine/Chest/Upper_Chest/Clavicle_L/Upper_Arm_L/Lower_Arm_L/Hand_L/Finger_L_Thumb_Proximal/Finger_L_Thumb_Intermediate
    m_Weight: 1
  - m_Path: Root/center/Hips/Spine/Chest/Upper_Chest/Clavicle_L/Upper_Arm_L/Lower_Arm_L/Hand_L/Finger_L_Thumb_Proximal/Finger_L_Thumb_Intermediate/Finger_L_Thumb_Distal
    m_Weight: 1
  - m_Path: Root/center/Hips/Spine/Chest/Upper_Chest/Clavicle_L/Upper_Arm_L/Lower_Arm_L/Hand_L/Prop_L
    m_Weight: 1
  - m_Path: Root/center/Hips/Spine/Chest/Upper_Chest/Clavicle_L/Upper_Arm_L/Lower_Arm_L/Lower_Arm_L_twist_00
    m_Weight: 1
  - m_Path: Root/center/Hips/Spine/Chest/Upper_Chest/Clavicle_L/Upper_Arm_L/Upper_Arm_L_twist_00
    m_Weight: 1
  - m_Path: Root/center/Hips/Spine/Chest/Upper_Chest/Clavicle_R
    m_Weight: 1
  - m_Path: Root/center/Hips/Spine/Chest/Upper_Chest/Clavicle_R/Upper_Arm_R
    m_Weight: 1
  - m_Path: Root/center/Hips/Spine/Chest/Upper_Chest/Clavicle_R/Upper_Arm_R/Lower_Arm_R
    m_Weight: 1
  - m_Path: Root/center/Hips/Spine/Chest/Upper_Chest/Clavicle_R/Upper_Arm_R/Lower_Arm_R/Elbow_R
    m_Weight: 1
  - m_Path: Root/center/Hips/Spine/Chest/Upper_Chest/Clavicle_R/Upper_Arm_R/Lower_Arm_R/Hand_R
    m_Weight: 1
  - m_Path: Root/center/Hips/Spine/Chest/Upper_Chest/Clavicle_R/Upper_Arm_R/Lower_Arm_R/Hand_R/Finger_R_Index_Proximal
    m_Weight: 1
  - m_Path: Root/center/Hips/Spine/Chest/Upper_Chest/Clavicle_R/Upper_Arm_R/Lower_Arm_R/Hand_R/Finger_R_Index_Proximal/Finger_R_Index_Intermediate
    m_Weight: 1
  - m_Path: Root/center/Hips/Spine/Chest/Upper_Chest/Clavicle_R/Upper_Arm_R/Lower_Arm_R/Hand_R/Finger_R_Middle_Proximal
    m_Weight: 1
  - m_Path: Root/center/Hips/Spine/Chest/Upper_Chest/Clavicle_R/Upper_Arm_R/Lower_Arm_R/Hand_R/Finger_R_Middle_Proximal/Finger_R_Middle_Intermediate
    m_Weight: 1
  - m_Path: Root/center/Hips/Spine/Chest/Upper_Chest/Clavicle_R/Upper_Arm_R/Lower_Arm_R/Hand_R/Finger_R_Pinky_Proximal
    m_Weight: 1
  - m_Path: Root/center/Hips/Spine/Chest/Upper_Chest/Clavicle_R/Upper_Arm_R/Lower_Arm_R/Hand_R/Finger_R_Pinky_Proximal/Finger_R_Pinky_Intermediate
    m_Weight: 1
  - m_Path: Root/center/Hips/Spine/Chest/Upper_Chest/Clavicle_R/Upper_Arm_R/Lower_Arm_R/Hand_R/Finger_R_Ring_Proximal
    m_Weight: 1
  - m_Path: Root/center/Hips/Spine/Chest/Upper_Chest/Clavicle_R/Upper_Arm_R/Lower_Arm_R/Hand_R/Finger_R_Ring_Proximal/Finger_R_Ring_Intermediate
    m_Weight: 1
  - m_Path: Root/center/Hips/Spine/Chest/Upper_Chest/Clavicle_R/Upper_Arm_R/Lower_Arm_R/Hand_R/Finger_R_Thumb_Proximal
    m_Weight: 1
  - m_Path: Root/center/Hips/Spine/Chest/Upper_Chest/Clavicle_R/Upper_Arm_R/Lower_Arm_R/Hand_R/Finger_R_Thumb_Proximal/Finger_R_Thumb_Intermediate
    m_Weight: 1
  - m_Path: Root/center/Hips/Spine/Chest/Upper_Chest/Clavicle_R/Upper_Arm_R/Lower_Arm_R/Hand_R/Finger_R_Thumb_Proximal/Finger_R_Thumb_Intermediate/Finger_R_Thumb_Distal
    m_Weight: 1
  - m_Path: Root/center/Hips/Spine/Chest/Upper_Chest/Clavicle_R/Upper_Arm_R/Lower_Arm_R/Hand_R/Prop_R
    m_Weight: 1
  - m_Path: Root/center/Hips/Spine/Chest/Upper_Chest/Clavicle_R/Upper_Arm_R/Lower_Arm_R/Lower_Arm_R_twist_00
    m_Weight: 1
  - m_Path: Root/center/Hips/Spine/Chest/Upper_Chest/Clavicle_R/Upper_Arm_R/Upper_Arm_R_twist_00
    m_Weight: 1
  - m_Path: Root/center/Hips/Spine/Chest/Upper_Chest/Neck
    m_Weight: 1
  - m_Path: Root/center/Hips/Spine/Chest/Upper_Chest/Neck/Head
    m_Weight: 1
  - m_Path: Root/center/Hips/Spine/Chest/Upper_Chest/Neck/Head/Eye_L
    m_Weight: 1
  - m_Path: Root/center/Hips/Spine/Chest/Upper_Chest/Neck/Head/Eye_R
    m_Weight: 1
  - m_Path: Root/center/Hips/Spine/Chest/Upper_Chest/Neck/Head/Face_BlendShapes
    m_Weight: 1
  - m_Path: Root/center/Hips/Spine/Chest/Upper_Chest/Neck/Head/Jaw
    m_Weight: 1
  - m_Path: Root/center/Hips/Upper_Leg_L
    m_Weight: 1
  - m_Path: Root/center/Hips/Upper_Leg_L/Lower_Leg_L
    m_Weight: 1
  - m_Path: Root/center/Hips/Upper_Leg_L/Lower_Leg_L/Foot_L
    m_Weight: 1
  - m_Path: Root/center/Hips/Upper_Leg_L/Lower_Leg_L/Foot_L/Toes_L
    m_Weight: 1
  - m_Path: Root/center/Hips/Upper_Leg_L/Lower_Leg_L/Lower_Leg_L_Twist_00
    m_Weight: 1
  - m_Path: Root/center/Hips/Upper_Leg_L/Upper_Leg_L_Twist_00
    m_Weight: 1
  - m_Path: Root/center/Hips/Upper_Leg_R
    m_Weight: 1
  - m_Path: Root/center/Hips/Upper_Leg_R/Lower_Leg_R
    m_Weight: 1
  - m_Path: Root/center/Hips/Upper_Leg_R/Lower_Leg_R/Foot_R
    m_Weight: 1
  - m_Path: Root/center/Hips/Upper_Leg_R/Lower_Leg_R/Foot_R/Toes_R
    m_Weight: 1
  - m_Path: Root/center/Hips/Upper_Leg_R/Lower_Leg_R/Lower_Leg_R_Twist_00
    m_Weight: 1
  - m_Path: Root/center/Hips/Upper_Leg_R/Upper_Leg_R_Twist_00
    m_Weight: 1
