%YAML 1.1
%TAG !u! tag:unity3d.com,2011:
--- !u!21 &2100000
Material:
  serializedVersion: 8
  m_ObjectHideFlags: 0
  m_CorrespondingSourceObject: {fileID: 0}
  m_PrefabInstance: {fileID: 0}
  m_PrefabAsset: {fileID: 0}
  m_Name: Mini Modular basic material shirt secondary white
  m_Shader: {fileID: 4800000, guid: 1a97144e4ad27a04aafd70f7b915cedb, type: 3}
  m_Parent: {fileID: 0}
  m_ModifiedSerializedProperties: 0
  m_ValidKeywords:
  - MTOON_OUTLINE_COLOR_FIXED
  - MTOON_OUTLINE_WIDTH_WORLD
  m_InvalidKeywords: []
  m_LightmapFlags: 4
  m_EnableInstancingVariants: 0
  m_DoubleSidedGI: 0
  m_CustomRenderQueue: -1
  stringTagMap:
    RenderType: Opaque
  disabledShaderPasses: []
  m_LockedProperties: 
  m_SavedProperties:
    serializedVersion: 3
    m_TexEnvs:
    - _BumpMap:
        m_Texture: {fileID: 0}
        m_Scale: {x: 1, y: 1}
        m_Offset: {x: 0, y: 0}
    - _DetailAlbedoMap:
        m_Texture: {fileID: 0}
        m_Scale: {x: 1, y: 1}
        m_Offset: {x: 0, y: 0}
    - _DetailMask:
        m_Texture: {fileID: 0}
        m_Scale: {x: 1, y: 1}
        m_Offset: {x: 0, y: 0}
    - _DetailNormalMap:
        m_Texture: {fileID: 0}
        m_Scale: {x: 1, y: 1}
        m_Offset: {x: 0, y: 0}
    - _EmissionMap:
        m_Texture: {fileID: 0}
        m_Scale: {x: 1, y: 1}
        m_Offset: {x: 0.2, y: 0}
    - _MainTex:
        m_Texture: {fileID: 2800000, guid: 640b9e44be243477289e65f471b460d6, type: 3}
        m_Scale: {x: 1, y: 1}
        m_Offset: {x: 0.2, y: 0}
    - _MetallicGlossMap:
        m_Texture: {fileID: 0}
        m_Scale: {x: 1, y: 1}
        m_Offset: {x: 0, y: 0}
    - _OcclusionMap:
        m_Texture: {fileID: 0}
        m_Scale: {x: 1, y: 1}
        m_Offset: {x: 0, y: 0}
    - _OutlineWidthTexture:
        m_Texture: {fileID: 0}
        m_Scale: {x: 1, y: 1}
        m_Offset: {x: 0, y: 0}
    - _ParallaxMap:
        m_Texture: {fileID: 0}
        m_Scale: {x: 1, y: 1}
        m_Offset: {x: 0, y: 0}
    - _ReceiveShadowTexture:
        m_Texture: {fileID: 0}
        m_Scale: {x: 1, y: 1}
        m_Offset: {x: 0, y: 0}
    - _RimTexture:
        m_Texture: {fileID: 0}
        m_Scale: {x: 1, y: 1}
        m_Offset: {x: 0, y: 0}
    - _ShadeTexture:
        m_Texture: {fileID: 2800000, guid: 640b9e44be243477289e65f471b460d6, type: 3}
        m_Scale: {x: 1, y: 1}
        m_Offset: {x: 0, y: 0}
    - _ShadingGradeTexture:
        m_Texture: {fileID: 0}
        m_Scale: {x: 1, y: 1}
        m_Offset: {x: 0, y: 0}
    - _SphereAdd:
        m_Texture: {fileID: 0}
        m_Scale: {x: 1, y: 1}
        m_Offset: {x: 0, y: 0}
    - _UvAnimMaskTexture:
        m_Texture: {fileID: 0}
        m_Scale: {x: 1, y: 1}
        m_Offset: {x: 0, y: 0}
    m_Ints: []
    m_Floats:
    - _AlphaToMask: 0
    - _BlendMode: 0
    - _BumpScale: 1
    - _CullMode: 2
    - _Cutoff: 0.5
    - _DebugMode: 0
    - _DetailNormalMapScale: 1
    - _DstBlend: 0
    - _GlossMapScale: 1
    - _Glossiness: 0.107
    - _GlossyReflections: 1
    - _IndirectLightIntensity: 0.1
    - _LightColorAttenuation: 0
    - _MToonVersion: 39
    - _Metallic: 0
    - _Mode: 0
    - _OcclusionStrength: 1
    - _OutlineColorMode: 0
    - _OutlineCullMode: 1
    - _OutlineLightingMix: 1
    - _OutlineScaledMaxDistance: 1
    - _OutlineWidth: 0.01
    - _OutlineWidthMode: 1
    - _Parallax: 0.02
    - _ReceiveShadowRate: 1
    - _RimFresnelPower: 1
    - _RimLift: 0
    - _RimLightingMix: 0
    - _ShadeShift: 0
    - _ShadeToony: 0.9
    - _ShadingGradeRate: 1
    - _SmoothnessTextureChannel: 0
    - _SpecularHighlights: 1
    - _SrcBlend: 1
    - _UVSec: 0
    - _UvAnimRotation: 0
    - _UvAnimScrollX: 0
    - _UvAnimScrollY: 0
    - _ZWrite: 1
    m_Colors:
    - _Color: {r: 1, g: 1, b: 1, a: 1}
    - _EmissionColor: {r: 0, g: 0, b: 0, a: 1}
    - _OutlineColor: {r: 0, g: 0, b: 0, a: 1}
    - _RimColor: {r: 0, g: 0, b: 0, a: 1}
    - _ShadeColor: {r: 1, g: 1, b: 1, a: 1}
  m_BuildTextureStacks: []
